{"intents": [
    {"intent": "CatchAllIntent", "slots": [{"name": "phrase", "type": "string"}]},
    {"intent": "GuessCharacterIntent", "slots": [{"name": "movie", "type": "string"}, {"name": "character", "type": "string"}]},
    {"intent": "MovieLinesIntent"},
    {"intent": "NameCharactersIntent"},
    {"intent": "AMAZON.YesIntent"},
    {"intent": "AMAZON.NoIntent"},
    {"intent": "AMAZON.HelpIntent"},
    {"intent": "AMAZON.StopIntent"},
    {"intent": "AMAZON.CancelIntent"}
  ]
}
